…
There are 8 days missing steps data. Use mean daily interval steps (37) to replace

```r
meandf$steps[which(is.na(meandf$steps))]<-mean(meandf$steps, na.rm=TRUE)
meandf$steps<-as.integer(meandf$steps)
names(meandf) <-c("date", "meansteps")
meandf
```

```
## # A tibble: 61 x 2
##    date       meansteps
##    <date>         <int>
##  1 2012-10-01        37
##  2 2012-10-02         0
##  3 2012-10-03        39
##  4 2012-10-04        42
##  5 2012-10-05        46
##  6 2012-10-06        53
##  7 2012-10-07        38
##  8 2012-10-08        37
##  9 2012-10-09        44
## 10 2012-10-10        34
## # ... with 51 more rows
```
…
